Data_Wrangling
…
##   mandante media_gols maximo
## 1      125      1.464      5

Funo group_by

Pode ser utilizada para criar informaes mais especficas sobre o dataset. Para isto, o summarise  utilizado em conjunto com a funo group by. Serve para agrupar as informaes do dataset por determinado critrio.

times = group_by(jogos, mandante)

estatisticas_times = times %>% summarise(media = mean(team_home_score),
                                         maximo = max(team_home_score))
estatisticas_times

## # A tibble: 32 x 3
##    mandante                   media maximo
##    <chr>                      <dbl>  <int>
##  1 " stanbul Baakehir "  1.67      3
##  2 " Ajax "                    1         3
##  3 " Atalanta "                0.75      2
##  4 " Atltico Madrid "        1         3
##  5 " B. MGladbach "         2         4
##  6 " Barcelona "               2         5
##  7 " Bayern Munich "           2.6       4
##  8 " Borussia Dortmund "       1.8       3
##  9 " Chelsea "                 1.33      3
## 10 " Club Brugge "             1.33      3
## # ... with 22 more rows
…
